<?xml version="1.0" standalone="no"?>
<!DOCTYPE svg PUBLIC "-//W3C//DTD SVG 1.1//EN" "http://www.w3.org/Graphics/SVG/1.1/DTD/svg11.dtd">
<svg xmlns="http://www.w3.org/2000/svg">
<metadata>Copyright (C) 2014 by original authors @ fontello.com</metadata>
<defs>
<font id="circle" horiz-adv-x="1000" >
<font-face font-family="circle" font-weight="400" font-stretch="normal" units-per-em="1000" ascent="850" descent="-150" />
<missing-glyph horiz-adv-x="1000" />
<glyph glyph-name="list23" unicode="&#x30;" d="" horiz-adv-x="1000" />
<glyph glyph-name="question3" unicode="&#x31;" d="m500 850c-276 0-500-224-500-500s224-500 500-500 500 224 500 500-224 500-500 500z m0-878c-36 0-64 29-64 65 0 35 28 64 64 64 36 0 64-29 64-64 0-36-28-65-64-65z m114 308c-27-15-51-43-51-55 0-34-28-62-63-62s-62 28-62 62c0 79 72 141 115 164 63 35 72 73 72 106 0 91-78 105-125 105-60 0-125-39-125-126 0-35-28-63-62-63s-63 28-63 63c0 163 129 251 250 251 124 0 250-71 250-230 0-93-46-166-136-215z" horiz-adv-x="1000" />
<glyph glyph-name="information51" unicode="&#x32;" d="m500 600c-34 0-62-28-62-62 0-35 28-63 62-63s63 28 63 63c0 34-28 62-63 62z m0-187c-34 0-62-28-62-63v-187c0-35 28-63 62-63s63 28 63 63v187c0 35-28 63-63 63z m0 437c-276 0-500-224-500-500s224-500 500-500c276 0 500 224 500 500s-224 500-500 500z m0-906c-224 0-406 182-406 406s182 406 406 406c224 0 406-182 406-406s-182-406-406-406z" horiz-adv-x="1000" />
<glyph glyph-name="information3" unicode="&#x33;" d="m497 850c-276-1-499-226-497-503 1-276 227-499 503-497 276 1 499 227 497 503-1 276-226 498-503 497z m5-919c-231-1-419 186-420 417-2 231 185 419 416 421s419-186 421-417c1-231-186-419-417-421z m74 200l-2 374-193-1 1-82 52 0 2-292-56 0 1-78 242 1-1 78-46 0z m-73 429c47 0 75 32 75 71-1 39-29 70-74 70-45-1-75-31-75-71 1-39 29-70 74-70z" horiz-adv-x="1000" />
<glyph glyph-name="info4" unicode="&#x34;" d="m500 804c-251 0-454-203-454-454s203-454 454-454 454 203 454 454-203 454-454 454z m95-704c-24-9-42-16-56-21-14-5-30-7-49-7-28 0-50 7-66 21s-23 31-23 52c0 8 0 17 1 26 2 8 3 18 6 29l29 103c3 10 5 19 7 28 2 9 2 17 2 25 0 13-2 22-8 27-5 5-16 8-31 8-8 0-15-1-23-4-8-2-15-4-21-6l8 32c19 7 38 14 55 20 18 5 34 8 50 8 28 0 50-7 65-20 15-14 23-32 23-53 0-5-1-13-2-24-1-11-3-22-6-31l-29-103c-2-9-4-18-6-29-2-10-3-18-3-24 0-13 3-23 9-28 6-5 17-7 32-7 7 0 15 1 24 4 9 2 15 4 19 6l-7-32z m-6 419c-13-13-29-19-49-19-19 0-35 6-49 19-13 12-20 28-20 46 0 17 7 33 20 46 14 12 30 19 49 19 20 0 36-7 49-19 14-13 21-29 21-46 0-18-7-34-21-46z" horiz-adv-x="1000" />
<glyph glyph-name="help19" unicode="&#x35;" d="m500 767c-229 0-417-188-417-417s188-417 417-417c229 0 417 188 417 417s-188 417-417 417z m42-709h-84v84h84v-84z m87 321l-37-37c-34-29-50-54-50-117h-84v21c0 46 17 87 50 117l50 54c17 12 25 33 25 58 0 46-37 83-83 83-46 0-83-37-83-83h-84c0 92 75 167 167 167 92 0 167-75 167-167 0-37-17-71-38-96z" horiz-adv-x="1000" />
<glyph glyph-name="help10" unicode="&#x36;" d="m500 781c-239 0-434-195-434-434 0-239 195-434 434-434 239 0 434 195 434 434 0 239-195 434-434 434z m0-829c-218 0-395 177-395 395 0 218 177 395 395 395 218 0 395-177 395-395 0-218-177-395-395-395z m3 662c-36 0-76-10-101-25l12-30c21 12 49 19 75 19 54-1 86-31 86-79 0-40-21-73-58-116-36-44-52-87-47-130l1-12h41l0 10c-3 44 11 82 48 125 38 46 66 82 66 131 0 50-32 107-123 107z m-12-455c-22 0-37-16-37-40 0-23 15-39 36-39 23 0 38 16 38 39 0 24-15 40-37 40z" horiz-adv-x="1000" />
<glyph glyph-name="help" unicode="&#x37;" d="m493 850c-276-4-497-231-493-507 4-276 231-497 507-493 276 4 497 231 493 507-4 276-231 497-507 493z m-1-804l-3 0c-42 1-72 32-71 74 1 41 32 71 73 71l2 0c44-1 74-32 72-75-1-41-31-70-73-70z m179 355c-10-15-32-32-60-54l-30-21c-17-13-27-25-31-37-3-10-5-12-5-31l0-5h-116l0 10c1 40 2 64 19 84 27 31 85 68 87 70 8 6 15 13 21 21 12 16 17 30 17 43 0 18-5 35-16 49-10 15-29 22-57 22-28 0-47-9-59-27-11-18-17-38-17-58v-5h-120l0 5c3 74 29 127 78 158 31 19 69 29 113 29 58 0 107-14 146-42 39-28 59-70 59-125 0-31-10-60-29-86z" horiz-adv-x="1000" />
<glyph glyph-name="error2" unicode="&#x38;" d="m500 850c-276 0-500-224-500-500s224-500 500-500 500 224 500 500-224 500-500 500z m0-811c-34 0-62 28-62 62 0 35 28 63 62 63s63-28 63-63c0-34-28-62-63-62z m63 249c0-35-28-63-63-63s-62 28-62 63v312c0 35 28 63 62 63s63-28 63-63v-312z" horiz-adv-x="1000" />
<glyph glyph-name="menu1" unicode="&#x39;" d="" horiz-adv-x="1130" />
</font>
</defs>
</svg>